{
  "project_info": {
    "project_number": "30033271285",
    "firebase_url": "https://portalvr.firebaseio.com",
    "project_id": "firebase-portalvr",
    "storage_bucket": "firebase-portalvr.appspot.com"
  },
  "client": [
    {
      "client_info": {
        "mobilesdk_app_id": "1:30033271285:android:2637b67494584398",
        "android_client_info": {
          "package_name": "com.pan.portal"
        }
      },
      "oauth_client": [
        {
          "client_id": "30033271285-hco5vlg7kh1npb7djrhqr6ls0na95n37.apps.googleusercontent.com",
          "client_type": 1,
          "android_info": {
            "package_name": "com.pan.portal",
            "certificate_hash": "8D6B06394E31751ABFE3ECD56AD8DD2944A9C9DA"
          }
        },
        {
          "client_id": "30033271285-8l4b40gn4vorkv2lga3q1h2ims9c2prh.apps.googleusercontent.com",
          "client_type": 3
        },
        {
          "client_id": "30033271285-l2llhrtj836gif56btk1nj81ljplu8es.apps.googleusercontent.com",
          "client_type": 3
        }
      ],
      "api_key": [
        {
          "current_key": "AIzaSyA-2Z6myAysobpjvDa9zCN3rjnY1O9sqYE"
        }
      ],
      "services": {
        "analytics_service": {
          "status": 1
        },
        "appinvite_service": {
          "status": 1,
          "other_platform_oauth_client": []
        },
        "ads_service": {
          "status": 2
        }
      }
    }
  ],
  "configuration_version": "1"
}